{
    "ja": {
        "home": {
            "home": "Home",
            "selfTodo": "自分の担当Ticket"
        },
        "todo": {
            "todo": "Ticket",
            "key": "key",
            "title": "タイトル",
            "content": "内容",
            "limitedAt": "期限",
            "group": "グループ",
            "self": "自分用",
            "noTodo": "Ticketはありません。",
            "progress": "進捗率",
            "noProgress": "未着手",
            "personnels": "担当",
            "from": "要求元",
            "appendsAllMember": "全員追加",
            "createTodoForAllPersonnels": "全員に個別Ticket作成",
            "children": "子Ticket",
            "files": "ファイル",
            "point": "ポイント",
            "createSprintBar": "スプリント作成",
            "sprintBarTitle": "名前",
            "sprintConfirmDelete": "スプリント\"{name}\"を削除しますか？",
            "todoConfirmDelete": "Ticket\"{name}\"を削除しますか？",
            "events": "履歴",
            "eventType": {
                "TODO_CREATE": "作成",
                "TODO_UPDATE": "変更",
                "TODO_CHANGE_ORDER": "優先順位変更"
            },
            "orderChange": {
                "higher": "優先度向上",
                "lower": "優先度低下"
            },
            "notChanged": "変更なし",
            "newCreated": "新規作成",
            "relations": "関連",
            "search": "Ticket検索",
            "linkCopyed": "コピーされました",
            "choiceParent": "親選択",
            "parent": "親Ticket",
            "comment": "コメント",
            "editingButSavedTodo": {
                "message": "保存されていない内容があります。ロードしますか？",
                "execButtonMessage": "ロード"
            },
            "createChildTodo": "子Ticket作成",
            "createNewTodoBefore": "直上にTicket作成",
            "createNewTodoAfter": "直下にTicket作成",
            "moveNextTo": "別Ticketの直下に移動",
            "conflict": "他から更新されました。",
            "messageLinks": "メッセージリンク",
            "url": "URL",
            "errors": {
                "failedToUploadImage": "ファイルのアップロードに失敗しました。",
                "failedToLoadTodo": "Ticketをロードできませんでした。"
            }
        },
        "manual": {
            "manual": "マニュアル",
            "regist": "マニュアル登録",
            "manage": "マニュアル設定",
            "regist_date": "登録日",
            "title": "タイトル",
            "register": "登録者",
            "shareTo": "公開範囲",
            "status": "状態",
            "content": "内容",
            "url": "URL",
            "sharePlace": {
                "global": "全公開",
                "group": "グループのみ",
                "hidden": "グループのみ"
            }
        },
        "login": {
            "login": "ログイン",
            "key": "コード",
            "mail": "メールアドレス",
            "sendLoginKey": "ログインコード送信",
            "resendLoginKey": "ログインコードの再送",
            "subdomain": "ドメイン名",
            "requestingToJoin": "参加リクエスト中です。",
            "mails": {
                "sendLoginCode": {
                    "subject": "[fRat] ログインコード送信",
                    "text": "ログイン画面にコードを入力してください。\n有効期限は10分です。\n\nコード:{key}",
                    "html": "<html><body>以下リンクからログインしてください。<br/>リンクの有効期限は10分です。<br/><a id=\"toLogin\" href=\"{protocol}://{host}/login?mail={mail}&key={key}{subdomainWithParam}\">ログインコード: {key}</a></body></html>"
                },
                "login": {
                    "subject": "[fRat] ログインされました。",
                    "text": "fRatにログインが行われました。\nログインデバイス:",
                    "html": "<html><body>fRatにログインが行われました。<br/>ログインデバイス：{userAgent}<br/><br/><a href=\"{host}\">fRat</a></body></html>"
                }
            },
            "error": {
                "keyInvalid": "キーが正しくありません。",
                "subdomainNotFound": "このスペースはまだ作成されていません。",
                "cantSendKey": "ログインキーをメールアドレスに送信できませんでした。",
                "failedToCreateTenant": "スペースを作成できませんでした。"
            }
        },
        "logout": {
            "logout": "ログアウト"
        },
        "landing": {
            "topRead": "今どきなスクラム開発をしたいあなたのために",
            "topDescription": "fRatはスクラムをオンラインで行うための、オープンソースのツールです。<br/>今までありそうでいて手が届いていなかった、スクラムを円滑にすすめるための様々な機能がシンプルに搭載されています。<ul><li>優先順位順に並んだTodo</li><ul><li>Todoが順番に並び、チームが次にやることが明確にわかります。</li></ul><li>リアルタイムなチケットの更新通知</li><ul><li>作業状況がリアルタイムでプッシュされ、チームの協調を促します。</li></ul><li>各種チャットサービスとの連携</li><ul><li>流れてしまいがちなチャット上の重要な情報をストックします。</li></ul><li>緩やかなグルーピング</li><ul><li>どのグループにも出入り可能で、組織感の連携を促します。</li><li>(もちろん、出入りに制限をかけることもできます。)</li></ul></ul>fRatを使って、強いチーム、組織を育てましょう。",
            "usageDescription": "fRatでは、最初に「スペース」を作成します。「スペース」は情報を共有する組織の単位で作成します。スペースを作成した人はスペースの管理者になります。<br/>スペースの中には組織のメンバーを招待してください。ユーザは管理者が招待して初めてスペースに参加することができます。<br/>スペースの中には「グループ」を作成できます。fRatではグループは「シークレットグループ」を除いて出入り自由です。情報が連携される単位がグループで、グループに参加すると、そのグループの活動がプッシュ通知されます。<br/>グループの中に「Ticket」を作成、上から優先順位順並べて、上から作業を行っていきます。Ticketをすすめるときは自分をTicketの「担当」にします。Ticketが進められたら、「進捗」のパーセンテージを上げてください。<br/>グループとは別に自身が担当者に設定されたTicketの優先順位を管理、可視化することができます。自分がやるべきことを上から並べて整理できます。",
            "createTenant": "スペース作成(最初はこちら)",
            "login": "ログイン",
            "connected": {
                "title": "Connected",
                "description": "オンラインで常にチームの状態をリアルタイムに把握できます。<br/>各種チャットと連携し情報を集約します。"
            },
            "together": {
                "title": "Together",
                "description": "チームメンバーの動向を把握しつつ一緒に仕事をすすめることができます。<br/>チームの課題と最新状況を可視化します。"
            },
            "refer": {
                "title": "Referable",
                "description": "過去や現在の、チームや会社の情報資産を使って仕事ができます。<br/>「あれ？これ前やったよ？」を防ぎます。"
            },
            "howToUse": "利用方法",
            "plan": {
                "title": "プラン",
                "pricingTitle": "価格",
                "onpremises": {
                    "title": "On-premises",
                    "pricing": "-",
                    "description": "fRatはオープンソースとして利用できます。ご自身のインフラ上で動作することができます。",
                    "limit": {
                        "file": "ファイル容量制限 なし",
                        "account": "利用人数制限 なし",
                        "group": "グループ制限 なし"
                    }
                },
                "free": {
                    "title": "Free",
                    "pricing": "無料",
                    "description": "デフォルトのプランです。このサイト上で無料で利用できます。必要に応じてプランを移行ください。",
                    "limit": {
                        "file": "ファイル容量制限 1G",
                        "account": "利用人数制限 5名",
                        "group": "グループ制限 2組"
                    }
                },
                "standard": {
                    "title": "Standard",
                    "pricing": "10,000円/月",
                    "description": "このサイト上で実践的にスクラムプロジェクトを運用いただけます。",
                    "limit": {
                        "file": "ファイル容量制限 30G",
                        "account": "利用人数制限 100名",
                        "group": "グループ制限 10組"
                    }
                },
                "premium": {
                    "title": "Premium",
                    "pricing": "20,000円/月",
                    "description": "このサイト上でアカウント数、グループ数を気にすることなく、組織的にfRatをご利用いただけます。",
                    "limit": {
                        "file": "ファイル容量制限 100G",
                        "account": "利用人数制限 200名",
                        "group": "グループ制限 なし"
                    }
                },
                "planDescription": "価格は税抜表示です。<br>プランはスペースごとに選択できます。スペース作成後、スペース設定からプランを変更してください。<br/>月途中でのプラン変更は日割りで請求、返金されます。<br/>プランを下げる場合には、ファイル容量、グループ数、アカウント数を制限以内にする必要があります。<br/>領収書は発行しません。クレジットカードの利用履歴をご利用ください。"
            }
        },
        "plan": {
            "plan": "プラン",
            "title": "プラン設定",
            "description": "スペースのプランを設定します。",
            "changeToFree": "Freeプランに変更してよろしいですか？",
            "currentTenantInfo": "現在の利用状況　ファイル {fileSizeTotal}byte、　グループ数 {groupCount}、 アカウント数 {memberCount}",
            "changeErrors": {
                "fileSizeLimitOver": "ファイル容量合計が {limit} を超えています。現在 {current} です。ファイルを削除してください。",
                "groupCountLimitOver": "グループ数が {limit} を超えています。現在 {current}個 です。削除してください。",
                "accountCountLimitOver": "アカウント数が {limit} を超えています。現在 {current} です。アカウントをいくつか退会させてください。"
            }
        },
        "group": {
            "group": "グループ",
            "name": "名前",
            "key": "KEY(変更不可。半角アルファベット大文字か、ハイフンのみ)",
            "description": "説明",
            "member": "メンバー",
            "viewMember": "閲覧専用メンバー",
            "appendsMember": "メンバー追加",
            "nomember": "メンバーはいません",
            "iconUrl": "アイコンURL",
            "manage": "グループ設定",
            "customAttribute": "カスタム属性追加",
            "appendsCustomAttribute": "カスタム属性追加",
            "noCustomAttribute": "カスタム属性はありません",
            "todoTemplate": "Ticketテンプレート",
            "secretSetting": "非公開設定",
            "secret": "非公開",
            "secretDescription": "変更不可。非公開グループには招待されないと参加されません。またTodoはサジェストされません。",
            "open": "スペース内公開",
            "integration": {
                "integration": "連携システム",
                "name": "連携システム名",
                "url": "連携URL",
                "noIntegration": "なし",
                "sharedSecret": "セキュリティ トークン"
            },
            "leave": "グループから離脱",
            "join": "参加",
            "viewerJoin": "閲覧のみ",
            "integrationCandidateUrl": "候補URL",
            "confirmDelete": "グループ\"{group}\"を削除してもよろしいですか？",
            "inputGroupKeyIfDeleteGroup": "グループを削除するためには\"{key}\"を入力してください。削除しても同じキー名のグループは作成できません。",
            "restoreFromArchive": "アーカイブからグループを作成",
            "specifyNewKey": "新しいキー選択（アルファベット大文字のみ）",
            "restoreDescription": "すべてが引き継がれるわけではありません。履歴とメッセージ、孫以上のTicket、関連Ticket、子Ticketがグループ外の場合等は引き継がれません。",
            "restoring": "作成中",
            "restore": {
                "created": "グループの登録完了",
                "fileUploading": "ファイルアップロード中 {name}",
                "todoRegisting": "Todo 登録中",
                "complete": "グループ\"{name}\"の作成が完了しました。"
            },
            "keyIsDuplicated": "キーが重複しています。",
            "exportZip": "TodoとWikiのアーカイブダウンロード",
            "errors": {
                "cantRegist": "グループの保存に失敗しました。"
            }
        },
        "customAttribute": {
            "title": "名前",
            "description": "説明",
            "type": "型",
            "types": {
                "TEXT": "文字",
                "TEXTAREA": "複数行文字",
                "INT": "数字",
                "SELECT": "選択肢",
                "DATE": "日付",
                "ACCOUNT": "人"
            },
            "options": "選択肢(カンマ区切り)"
        },
        "groupHome": {
            "todo": "グループのTicket"
        },
        "account": {
            "name": "名前",
            "mail": "メールアドレス",
            "role": "ロール",
            "setting": "アカウント設定",
            "iconSharedEverySpace": "アイコンは全スペースで共通です。",
            "desctiopNotification": "デスクトップ通知",
            "desktopNotificationSharedEverySpace": "デスクトップ通知設定は全スペース共通です。",
            "desktopNotificationInitialized": "デスクトップ通知が有効化されました。"
        },
        "tenant": {
            "tenant": "スペース",
            "create": "新規スペース作成",
            "name": "名前",
            "key": "KEY",
            "group": "グループ",
            "member": "メンバー",
            "appendsMember": "メンバー追加",
            "manage": "スペース設定",
            "invite": "招待",
            "roles": {
                "OWNER": "管理者",
                "MEMBER": "メンバー",
                "INVITER": "招待中",
                "REQUESTER": "参加依頼中",
                "REJECTOR": "退会"
            },
            "totalFileSize": "合計ファイルサイズ",
            "systemMaintenance": "システムメンテナンス",
            "accessibleIpRanges": "アクセス可能IP範囲",
            "accessibleIpRangesExceptWebhook": "連携システムのWebhookは設定に関わらず許可されます。",
            "ipIsNotInRangeError": "現在のIP\"{ip}\"が範囲に含まれていません。",
            "accountCountLimit": "現在のプランの最大アカウント数は{limit}アカウントです。",
            "groupCantCreateWithThisPlan": "現在のプランではこれ以上グループを作成することはできません。",
            "mails": {
                "invite": {
                    "subject": "fRatに招待されました。",
                    "text": "{inviter}さんからfRatに招待されました。\n{protocol}://{host}/login からfRatに参加してください。",
                    "html": "<html><body>{inviter}さんからfRatに招待されました。<br/><a id=\"toLogin\" href=\"{protocol}://{host}/login\">{protocol}://{host}/login</a> からfRatにログインしてください。</body></html>"
                }
            },
            "errors": {
                "inviteFail": "招待に失敗しました。",
                "roleChangeFail": "ロール変更に失敗しました。",
                "accountLimitOver": "アカウント数が現在のプランの上限を超えました。"
            }
        },
        "wiki": {
            "wiki": "Wiki",
            "confirmDelete": "Wiki \"{title}\" を削除しても良いですか？",
            "errors": {
                "failedToUploadFile": "ファイルのアップロードに失敗しました。"
            }
        },
        "file": {
            "file": "ファイル",
            "name": "名前",
            "size": "サイズ",
            "registedAt": "登録日",
            "register": "登録者",
            "noFile": "ファイルはありません。",
            "filesInTenant": "スペース内のファイル",
            "confirmDelete": "{name}を削除して良いですか？",
            "maintenance": "ファイル管理",
            "totalCount": "ファイル数 {totalCount}",
            "sumOfSize": "サイズ合計 {sumOfSize}"
        },
        "payment": {
            "info": "お支払い情報",
            "card": {
                "number": "カード番号",
                "limit": "有効期限",
                "securityCode": "セキュリティーコード"
            },
            "thisCardCantUse": "このカードはご利用いただけません。",
            "errors": {
                "cantUseCard": "カードの登録に失敗しました。",
                "cantUpdatePlan": "プランを変更できませんでした。"
            }
        },
        "toast": {
            "todoUpdated": "更新されました。",
            "todoCompeted": "完了しました。",
            "todoDeleted": "削除されました。"
        },
        "appends": "追加",
        "set": "設定",
        "ok": "OK",
        "create": "作成",
        "delete": "削除",
        "save": "保存",
        "edit": "編集",
        "newTodo": "新規Ticket作成",
        "newGroup": "新規グループ作成",
        "cancel": "キャンセル",
        "dateformat": "YYYY/MM/DD",
        "sprint": "スプリント",
        "sprints": {
            "orderChange": {
                "higher": "範囲縮小",
                "lower": "範囲拡大"
            },
            "edit": "Sprintの編集",
            "title": "タイトル",
            "startAt": "開始日",
            "endAt": "完了日"
        },
        "search": "検索",
        "terms": "利用規約",
        "privacyPolicy": "プライバシーポリシー",
        "useAsAgreeTerms": "ログインにより利用規約に合意したものとみなされます。",
        "buy": "購入",
        "notification": "通知"
    },
    "en": {
        "home": {
            "home": "Home",
            "selfTodo": "Your Ticket"
        },
        "todo": {
            "todo": "Todo",
            "key": "key",
            "title": "Title",
            "content": "Content",
            "limit": "Limit",
            "group": "Group",
            "self": "Self",
            "noTodo": "There is no Todo.",
            "progress": "Progress",
            "noProgress": "Not doing",
            "personnels": "Personnels",
            "from": "From",
            "appendsAllMember": "Appends all",
            "createTodoForAllPersonnels": "Create Todos for all personnels",
            "children": "Children",
            "file": "File",
            "point": "Point",
            "createSprintBar": "Create Sprint",
            "sprintBarTitle": "Name",
            "sprintConfirmDelete": "Delete sprint \"{name}\"?",
            "todoConfirmDelete": "Delete todo \"{name}\"?",
            "events": "History",
            "eventType": {
                "TODO_CREATE": "create",
                "TODO_UPDATE": "update",
                "TODO_CHANGE_ORDER": "change order"
            },
            "orderChange": {
                "higher": "Priority up",
                "lower": "Priority down"
            },
            "notChanged": "Not Changed",
            "newCreated": "New Created",
            "relations": "Relations",
            "search": "Search Todo",
            "linkCopyed": "Copied",
            "choiceParent": "Parent",
            "parent": "Parent",
            "comment": "Comment",
            "editingButSavedTodo": {
                "message": "Edited but not saved todo is exist. Load it?",
                "execButtonMessage": "Load"
            },
            "createChildTodo": "Create child todo",
            "createNewTodoBefore": "Create new todo very before",
            "createNewTodoAfter": "Create new todo very after",
            "moveNextTo": "Move next to another todo",
            "conflict": "Some one updated this todo.",
            "messageLinks": "Message Links",
            "url": "URL",
            "errors": {
                "failedToUploadImage": "Failed to upload file.",
                "failedToLoadTodo": "Failed to load ticket"
            }
        },
        "manual": {
            "manual": "Manual List",
            "regist": "Regist Manual",
            "manage": "Manage Manual",
            "regist_date": "regist_date",
            "title": "title",
            "register": "register",
            "shareTo": "shareTo",
            "status": "status",
            "content": "content",
            "url": "URL",
            "sharePlace": {
                "global": "global",
                "group": "group",
                "hidden": "hidden"
            }
        },
        "login": {
            "login": "Login",
            "key": "Code",
            "mail": "Enter your mail",
            "sendLoginKey": "Send Login Code",
            "resendLoginKey": "Resend Login Code",
            "subdomain": "Domain Name",
            "requestingToJoin": "Now still requesting join.",
            "mails": {
                "sendLoginCode": {
                    "subject": "[fRat] Login Code",
                    "text": "Enter code to login page.\nThis code is 10 minute limited.\n\ncode:{key}",
                    "html": "<html><body>Login from this link<br/>This link is 10 minute limited.<br/><a id=\"toLogin\" href=\"{protocol}://{host}/login?mail={mail}&key={key}{subdomainWithParam}\">code: {key}</a></body></html>"
                },
                "login": {
                    "subject": "[fRat] Logined",
                    "text": "Logined to fRat with this mail address.\ndevice: {userAgent}",
                    "html": "<html><body>Logined to fRat with this mail address.<br/>device: {userAgent}<br/><br/><a href=\"{host}\">fRat</a></body></html>"
                }
            },
            "error": {
                "keyInvalid": "Key is invalid",
                "subdomainNotFound": "This space is not created yet.",
                "cantSendKey": "Failed to send login key.",
                "failedToCreateTenant": "Failed to create space."
            }
        },
        "logout": {
            "logout": "logout"
        },
        "landing": {
            "topRead": "Be bustling!!!",
            "topDescription": "fRat is created as a tool to connect teams in real time, online and collaborate with each other. Various functions that have not been reached are simply installed.",
            "usageDescription": "In fRat, first create a \"Space\". \"Space\" is created per the organizational unit that shares information. \"Group\" can be created in \"Space\". In fRat, \"Group\" is free to enter and exit except \"Secret Group\". The unit for which information is linked is \"Group\". When you join a group, you will receive a push notification of the group activity. Create and place \"Ticket\" in the group in order of priority, and work from the top. Aside from the group, it is possible to manage and visualize the priority of \"Ticket\" assigned to the person in charge.",
            "createTenant": "Create Space.(start)",
            "login": "Login",
            "connected": {
                "title": "Connected",
                "description": "Keep track of team status online in real time."
            },
            "together": {
                "title": "Together",
                "description": "You can work with team members."
            },
            "refer": {
                "title": "Referable",
                "description": "Work with your team and company information assets, past and current."
            },
            "howToUse": "How to use",
            "pricing": "Pricing",
            "plan": {
                "title": "Plan",
                "onpremises": {
                    "title": "On-premises",
                    "description": "Use fRat your own place.",
                    "plicing": "-",
                    "limit": {
                        "file": "No file limit",
                        "account": "No account limit",
                        "group": "No group limit"
                    }
                },
                "free": {
                    "title": "Free",
                    "description": "For starter. You can use fRat on this site.",
                    "plicing": "Free",
                    "limit": {
                        "file": "1G File limited",
                        "account": "5 Accounts limited",
                        "group": "2 Groups limited"
                    }
                },
                "standard": {
                    "title": "Standard",
                    "description": "For project use. You can use fRat for practical scrum project.",
                    "plicing": "¥10,000/month",
                    "limit": {
                        "file": "100G File limited",
                        "account": "100 Accounts limited",
                        "group": "10 Groups limited"
                    }
                },
                "premium": {
                    "title": "Premium",
                    "plicing": "¥20,000/month",
                    "description": "For organization use. You can use fRat with no limited account number and group number.",
                    "limit": {
                        "file": "1T File limited",
                        "account": "200 Accounts limited",
                        "group": "No group limit"
                    }
                },
                "planDescription": "Prices are without tax. When changing plans, you will be charged on a pro-rated basis. <br/>No receipt will be issued. Please use credit card usage history."
            }
        },
        "plan": {
            "plan": "Plan",
            "title": "Plan setting",
            "description": "Set space plan.",
            "changeToFree": "Change to Free plan?",
            "currentTenantInfo": "Current Usage　File {fileSizeTotal}byte, {groupCount} groups, {memberCount} accounts",
            "changeErrors": {
                "fileSizeLimitOver": "Total file size is over {limit}. Current {current}. delete files.",
                "groupCountLimitOver": "Group counts over {limit}. Current {current}. delete groups.",
                "accountCountLimitOver": "Account counts over {limit}. Current {current}. Reject accounts."
            }
        },
        "group": {
            "group": "Group",
            "name": "Name",
            "key": "Key",
            "description": "Description",
            "member": "Members",
            "viewMember": "View Only",
            "appendsMember": "Appends Member",
            "nomember": "No member",
            "iconUrl": "Icon URL",
            "manage": "Manage Group",
            "customAttribute": "Custom Attribute",
            "appendsCustomAttribute": "Appends Custom Attribute",
            "noCustomAttribute": "No Custom Attribute",
            "todoTemplate": "Ticket Template",
            "secretSetting": "Secret setting",
            "secret": "Secret",
            "secretDescription": "Secret group can't join without invite. And todo in secret todo not suggest at edit todo.",
            "open": "Open to Space",
            "integration": {
                "integration": "Integrations",
                "name": "Name",
                "url": "Integration URL",
                "noIntegration": "None",
                "sharedSecret": "SharedSecret"
            },
            "leave": "Leave group",
            "join": "Join",
            "viewerJoin": "View Only",
            "integrationCandidateUrl": "Candidate Url",
            "confirmDelete": "Delete group \"{group}\" ?",
            "inputGroupKeyIfDeleteGroup": "Input \"{key}\" to delete group. Even if you delete group, you can't create group have same key.",
            "restoreFromArchive": "Restore with archive",
            "specifyNewKey": "Specify new group key. Key must be upper alphabet only.",
            "restoreDescription": "History and message will be not restored. Second-generation child, related todo, child todo out of group will be not restored. ",
            "restoring": "Restoring",
            "restore": {
                "created": "Group created",
                "fileUploading": "File uploading {name}",
                "todoRegisting": "Registing Todos",
                "complete": "Restore group \"{name}\" is complete."
            },
            "keyIsDuplicated": "This key is duplicated",
            "exportZip": "Download archive of todo list and wiki.",
            "errors": {
                "cantRegist": "Failed to regist group"
            }
        },
        "customAttribute": {
            "title": "Title",
            "description": "Description",
            "type": "Type",
            "types": {
                "TEXT": "text",
                "TEXTAREA": "textarea",
                "INT": "Number",
                "SELECT": "Select",
                "DATE": "Date",
                "ACCOUNT": "Account"
            },
            "options": "Select from(canma separated)"
        },
        "groupHome": {
            "todo": "Todo"
        },
        "account": {
            "name": "Name",
            "mail": "Address",
            "role": "Role",
            "setting": "Account Setting",
            "iconSharedEverySpace": "icon shared with every space.",
            "desctiopNotification": "Desctiop Notification",
            "desktopNotificationSharedEverySpace": "Desctiop notification setting shared with every space.",
            "desktopNotificationInitialized": "Desctiop notification is activated."
        },
        "tenant": {
            "tenant": "Space",
            "create": "Create New Space",
            "name": "Name",
            "key": "KEY",
            "group": "Group",
            "member": "Member",
            "appendsMember": "Appends Member",
            "manage": "Manage Space",
            "invite": "Invite",
            "roles": {
                "OWNER": "OWNER",
                "MEMBER": "MEMBER",
                "INVITER": "INVITING",
                "REQUESTER": "REQIESTING",
                "REJECTOR": "REJECTED"
            },
            "totalFileSize": "Total file Size",
            "systemMaintenance": "System Maintenance",
            "accessibleIpRanges": "Accessible IP Ranges",
            "accessibleIpRangesExceptWebhook": "Integrated system webhooks are allowed regardless of the setting.",
            "ipIsNotInRangeError": "Current IP\"{ip}\" is not in ranges.",
            "accountCountLimit": "Limit of account count in current plan is \"{limit}\"",
            "groupCantCreateWithThisPlan": "No more groups with current plan",
            "mails": {
                "invite": {
                    "subject": "You are invited to fRat",
                    "text": "{inviter} invited you to fRat.\nLogin from {protocol}://{host}/login",
                    "html": "<html><body>{inviter} invited you to fRat.<br/>Login from <a id=\"toLogin\" href=\"{protocol}://{host}/login\">{protocol}://{host}/login</a></body></html>"
                }
            },
            "errors": {
                "inviteFail": "Invitation failed.",
                "roleChangeFail": "Role change failed.",
                "accountLimitOver": "Account count is over limit of current plan."
            }
        },
        "wiki": {
            "wiki": "Wiki",
            "confirmDelete": "Delete Confirm \"{title}\" ?",
            "errors": {
                "failedToUploadFile": "Failed to upload image."
            }
        },
        "file": {
            "file": "File",
            "name": "Name",
            "size": "Size",
            "registedAt": "Registed Date",
            "register": "Owner",
            "noFile": "No File",
            "filesInTenant": "Files in space",
            "confirmDelete": "Delete {name}?",
            "maintenance": "Maintenance files",
            "totalCount": "Total count {totalCount}",
            "sumOfSize": "Sum of size {sumOfSize}"
        },
        "payment": {
            "info": "Payment information",
            "card": {
                "number": "Number",
                "limit": "Limit",
                "securityCode": "Security Code"
            },
            "thisCardCantUse": "This card cant be used.",
            "errors": {
                "cantUseCard": "Failed to regist card.",
                "cantUpdatePlan": "Failed to update plan."
            }
        },
        "toast": {
            "todoUpdated": "is updated.",
            "todoCompeted": "was done.",
            "todoDeleted": "was deleted."
        },
        "appends": "Appends",
        "set": "Set",
        "ok": "OK",
        "create": "Create",
        "delete": "Delete",
        "save": "Save",
        "edit": "Edit",
        "newTodo": "Create new todo",
        "newGroup": "Create new group",
        "cancel": "Cancel",
        "dateformat": "MMMM/DD/YYYY",
        "sprint": "Sprint",
        "sprints": {
            "orderChange": {
                "higher": "Range reducted",
                "lower": "Range expanded"
            },
            "edit": "Edit Sprint",
            "title": "Title",
            "startAt": "Start at",
            "endAt": "End at"
        },
        "search": "Search",
        "terms": "Terms",
        "privacyPolicy": "Privacy policy",
        "useAsAgreeTerms": "If you login, you are assumed that you have agreed to the terms of service.",
        "buy": "Buy",
        "notification": "通知"
    }
}